{
  "name": "uobacrc-mibs",
  "version": "0.1.0",
  "author": "uobacrc",
  "summary": "install selection of SNMP MIBs",
  "license": "Apache 2.0",
  "source": "https://bitbucket.org/uobacrc/puppet-mibs",
  "project_page": "https://bitbucket.org/uobacrc/puppet-mibs",
  "issues_url": "https://bitbucket.org/uobacrc/puppet-mibs",
  "dependencies": [
    {"name":"puppetlabs-stdlib","version_requirement":">= 1.0.0"}
  ]
}

